Análise de Dados
…
Tidyverse

Temos que importar o módulo Tidyverse

library(tidyverse)

Instala bastantes pacotes

Possui muitas funções interessantes para a análise de dados

Dataset utilizado neste exemplo

mpg

# A tibble: 234 x 11
   manufacturer model    displ  year   cyl trans   drv     cty   hwy fl    class
   <chr>        <chr>    <dbl> <int> <int> <chr>   <chr> <int> <int> <chr> <chr>
 1 audi         a4         1.8  1999     4 auto(l~ f        18    29 p     comp~
 2 audi         a4         1.8  1999     4 manual~ f        21    29 p     comp~
 3 audi         a4         2    2008     4 manual~ f        20    31 p     comp~
 4 audi         a4         2    2008     4 auto(a~ f        21    30 p     comp~
 5 audi         a4         2.8  1999     6 auto(l~ f        16    26 p     comp~
 6 audi         a4         2.8  1999     6 manual~ f        18    26 p     comp~
 7 audi         a4         3.1  2008     6 auto(a~ f        18    27 p     comp~
 8 audi         a4 quat~   1.8  1999     4 manual~ 4        18    26 p     comp~
 9 audi         a4 quat~   1.8  1999     4 auto(l~ 4        16    25 p     comp~
10 audi         a4 quat~   2    2008     4 manual~ 4        20    28 p     comp~
# ... with 224 more rows
…
Selecionar atributos

mpg %>% select(year, cyl, cty, hwy, drv, fl)

# A tibble: 234 x 6
    year   cyl   cty   hwy drv   fl   
   <int> <int> <int> <int> <chr> <chr>
 1  1999     4    18    29 f     p    
 2  1999     4    21    29 f     p    
 3  2008     4    20    31 f     p    
 4  2008     4    21    30 f     p    
 5  1999     6    16    26 f     p    
 6  1999     6    18    26 f     p    
 7  2008     6    18    27 f     p    
 8  1999     4    18    26 4     p    
 9  1999     4    16    25 4     p    
10  2008     4    20    28 4     p    
# ... with 224 more rows

Selecionar linhas e atributos

mpg %>% select(year, cyl, cty, hwy, drv, fl) %>% filter(cyl == 6)

# A tibble: 79 x 6
    year   cyl   cty   hwy drv   fl   
   <int> <int> <int> <int> <chr> <chr>
 1  1999     6    16    26 f     p    
 2  1999     6    18    26 f     p    
 3  2008     6    18    27 f     p    
 4  1999     6    15    25 4     p    
 5  1999     6    17    25 4     p    
 6  2008     6    17    25 4     p    
 7  2008     6    15    25 4     p    
 8  1999     6    15    24 4     p    
 9  2008     6    17    25 4     p    
10  1999     6    18    26 f     r    
# ... with 69 more rows

Selecionar linhas e atributos e ordenar

mpg %>% select(year, cyl, cty, hwy, drv, fl) %>% filter(cyl == 6) %>%
  arrange(cty)

# A tibble: 79 x 6
    year   cyl   cty   hwy drv   fl   
   <int> <int> <int> <int> <chr> <chr>
 1  2008     6    11    17 f     e    
 2  1999     6    13    17 4     r    
 3  1999     6    13    17 4     r    
 4  2008     6    13    19 4     r    
 5  2008     6    13    19 4     r    
 6  2008     6    14    18 4     r    
 7  1999     6    14    17 4     r    
 8  1999     6    14    17 4     r    
 9  1999     6    14    17 4     r    
10  1999     6    14    17 4     r    
# ... with 69 more rows
…
# A tibble: 1 x 3
  data                pca      pca_aug            
  <list>              <list>   <list>             
1 <tibble [568 x 32]> <prcomp> <tibble [568 x 63]>

WDBC PCA

var_exp = wdbc_pca %>% unnest(pca_aug) %>% summarize(across(matches("PC\\d+"), var)) %>%
  gather(key = pc, value = variance) %>% 
  mutate(var_exp = variance/sum(variance),
         cum_var_exp = cumsum(var_exp),
         pc = str_replace(pc, ".fitted", ""))
var_exp

# A tibble: 30 x 4
   pc    variance var_exp cum_var_exp
   <chr>    <dbl>   <dbl>       <dbl>
 1 PC1     13.2    0.441        0.441
 2 PC2      5.72   0.191        0.632
 3 PC3      2.83   0.0944       0.726
 4 PC4      1.97   0.0656       0.792
 5 PC5      1.65   0.0551       0.847
 6 PC6      1.21   0.0404       0.887
 7 PC7      0.671  0.0224       0.910
 8 PC8      0.478  0.0159       0.926
 9 PC9      0.419  0.0140       0.940
10 PC10     0.351  0.0117       0.951
# ... with 20 more rows
…
